tT: Spending on Kids · rww.science
…
It is very tidy. It is probably better shown after a pivot. 50 states, the District of Columbia, and 20 years gives us 1,020 observations. Let me show it wide.

Big.Wide <- pivot_wider(kids, id_cols = c(state,year), names_from = "variable", values_from = c("raw","inf_adj","inf_adj_perchild"))
Big.Wide

## # A tibble: 1,020 x 71
##    state  year raw_PK12ed raw_highered raw_edsubs raw_edservs raw_pell
##    <chr> <int>      <dbl>        <dbl>      <dbl>       <dbl>    <dbl>
##  1 Alab…  1997    3271969       956505     107733      246057  120833.
##  2 Alas…  1997    1042311       209433       5550       52355    7575.
##  3 Ariz…  1997    3388165       847032     111735      170281  120450.
##  4 Arka…  1997    1960613       457171      62447      189808   65904.
##  5 Cali…  1997   28708364      6858657    1121672      943805  775292.
##  6 Colo…  1997    3332994       861733      84129       77419   79004.
##  7 Conn…  1997    4014870       502177      71053      138932   36453.
##  8 Dela…  1997     776825       185114      31284       81880    9965.
##  9 Dist…  1997     544051        56693          0           0   18972.
## 10 Flor…  1997   11498394      2039186     391935      269777  318611.
## # … with 1,010 more rows, and 64 more variables: raw_HeadStartPriv <dbl>,
## #   raw_TANFbasic <dbl>, raw_othercashserv <dbl>, raw_SNAP <dbl>,
## #   raw_socsec <dbl>, raw_fedSSI <dbl>, raw_fedEITC <dbl>, raw_CTC <dbl>,
## #   raw_addCC <dbl>, raw_stateEITC <dbl>, raw_unemp <dbl>, raw_wcomp <dbl>,
## #   raw_Medicaid_CHIP <dbl>, raw_pubhealth <dbl>, raw_other_health <dbl>,
## #   raw_HCD <dbl>, raw_lib <dbl>, raw_parkrec <dbl>, inf_adj_PK12ed <dbl>,
## #   inf_adj_highered <dbl>, inf_adj_edsubs <dbl>, inf_adj_edservs <dbl>,
## #   inf_adj_pell <dbl>, inf_adj_HeadStartPriv <dbl>, inf_adj_TANFbasic <dbl>,
## #   inf_adj_othercashserv <dbl>, inf_adj_SNAP <dbl>, inf_adj_socsec <dbl>,
…
