…
##                        Var1 Freq
## 2727  positional bargaining   44
## 2841 principled negotiation   36
## 2398     objective criteria   30
## 451             bottom line   25
## 3014        reach agreement   20
## 2264      negotiating power   16

bigram_counts

## # A tibble: 4,089 × 3
##    word1       word2           n
##    <chr>       <chr>       <int>
##  1 <NA>        <NA>          215
##  2 positional  bargaining     44
##  3 principled  negotiation    36
##  4 objective   criteria       30
##  5 bottom      line           25
##  6 reach       agreement      20
##  7 negotiating power          16
##  8 negotiation power          14
##  9 inventing   options        13
## 10 mutual      gain           11
## # … with 4,079 more rows
…
