…
## # A tibble: 4 x 3
##   Position Mean.Base.Salary  sdBS
## * <chr>               <dbl> <dbl>
## 1 D                    25    5.27
## 2 F                    24.5  4.61
## 3 GK                   28.2  4.68
## 4 M                    24.8  4.95

EPL.Result %>% group_by(Position,Team) %>% summarise(Mean.Base.Salary=mean(Base.Num, na.rm=TRUE),sdBS=sd(Base.Num, na.rm = TRUE))

## # A tibble: 80 x 4
## # Groups:   Position [4]
##    Position Team                                         Mean.Base.Salary  sdBS
##    <chr>    <chr>                                                   <dbl> <dbl>
##  1 D        Https:www.spotrac.comeplarsenal Fc                       24.7  3.77
##  2 D        Https:www.spotrac.comeplaston Villa Fc                   25.6  3.62
##  3 D        Https:www.spotrac.comeplbrighton Hove Albion             23.9  4.22
##  4 D        Https:www.spotrac.comeplburnley Fc                       28.6  3.62
##  5 D        Https:www.spotrac.comeplchelsea Fc                       26.2  4.49
##  6 D        Https:www.spotrac.comeplcrystal Palace                   28    4.81
##  7 D        Https:www.spotrac.comepleverton Fc                       24.7  3.86
##  8 D        Https:www.spotrac.comeplfulham Fc                        25.5  3.57
##  9 D        Https:www.spotrac.comeplleeds United Fc                  19.4 11.6 
## 10 D        Https:www.spotrac.comeplleicester City                   25.7  6.11
## # … with 70 more rows
…
