…
<script src="{{< blogdown/postref >}}index_files/header-attrs/header-attrs.js">

NKE

First, let me use tidyquant to acquire the data.

library(tidyquant); library(tidyverse)
NKE <- tq_get("NKE", from="2019-01-01")
NKE

## # A tibble: 666 × 8
##    symbol date        open  high   low close   volume adjusted
##    <chr>  <date>     <dbl> <dbl> <dbl> <dbl>    <dbl>    <dbl>
##  1 NKE    2019-01-02  72.8  74.6  72.2  74.1  6762700     72.3
##  2 NKE    2019-01-03  73.2  73.3  71.2  72.8  8007400     71.0
##  3 NKE    2019-01-04  73.4  75.1  73.1  74.7  7844200     72.9
##  4 NKE    2019-01-07  74.7  76.4  74.3  75.7  8184800     73.9
##  5 NKE    2019-01-08  76.8  77.4  76.2  76.7  8809000     74.9
##  6 NKE    2019-01-09  77.0  77.2  76.1  76.6  8591000     74.8
##  7 NKE    2019-01-10  75.6  77.3  75.5  76.4 11148600     74.6
##  8 NKE    2019-01-11  76.3  76.9  75.8  76.0 10689900     74.2
##  9 NKE    2019-01-14  75.5  76.8  75.5  76.1  5677400     74.3
## 10 NKE    2019-01-15  76.2  78.0  76.1  77.9  6212400     76.0
## # … with 656 more rows
…
