slider is a magical way of creating moving averages · rww-science: the blog
…
Now I want to create monthly data. I will the yearmonth type from lubridate. By default, tidyquant uses yearmon which is different.

# Create nike returns, need tq_transmute because we are taking daily data and turning it into monthly.
Nike.Returns <- Nike.Stocks %>% tq_transmute(adjusted, mutate_fun=periodReturn, period="monthly") 
Nike.Returns # It is monthly but the date is a date.  To make them match, I need a yearmonth

## # A tibble: 76 x 2
##    date       monthly.returns
##    <date>               <dbl>
##  1 2015-01-30         -0.0293
##  2 2015-02-27          0.0558
##  3 2015-03-31          0.0331
##  4 2015-04-30         -0.0149
##  5 2015-05-29          0.0314
##  6 2015-06-30          0.0625
##  7 2015-07-31          0.0667
##  8 2015-08-31         -0.0301
##  9 2015-09-30          0.103 
## 10 2015-10-30          0.0655
## # … with 66 more rows

I want to mutate the date to be a yearmonth. Getting the time measure right is the crucial part of this.

Nike.Returns <- Nike.Returns %>% mutate(date = yearmonth(date))
Nike.Returns

## # A tibble: 76 x 2
##        date monthly.returns
##       <mth>           <dbl>
##  1 2015 Jan         -0.0293
##  2 2015 Feb          0.0558
##  3 2015 Mar          0.0331
##  4 2015 Apr         -0.0149
##  5 2015 May          0.0314
##  6 2015 Jun          0.0625
##  7 2015 Jul          0.0667
##  8 2015 Aug         -0.0301
##  9 2015 Sep          0.103 
## 10 2015 Oct          0.0655
## # … with 66 more rows

Now let me try another mutation. Let me keep the last closing price of the month. The last step here makes sure the dates are the same type. All of this remains tibble as the type; not tsibble. That is convenient for joining data.

Nike.Last <- Nike.Stocks %>% 
  tq_transmute(select = adjusted, mutate_fun = to.monthly)
Nike.Last

## # A tibble: 76 x 2
##    date      adjusted
##    <yearmon>    <dbl>
##  1 Jan 2015      43.0
##  2 Feb 2015      45.5
##  3 Mar 2015      47.0
##  4 Apr 2015      46.3
##  5 May 2015      47.7
##  6 Jun 2015      50.7
##  7 Jul 2015      54.1
##  8 Aug 2015      52.4
##  9 Sep 2015      57.9
## 10 Oct 2015      61.6
## # … with 66 more rows

That is not quite right. This is a yearmon type. I need to change that.

Nike.Last <- Nike.Last%>%
  mutate(date = yearmonth(date))
Nike.Last

## # A tibble: 76 x 2
##        date adjusted
##       <mth>    <dbl>
##  1 2015 Jan     43.0
##  2 2015 Feb     45.5
##  3 2015 Mar     47.0
##  4 2015 Apr     46.3
##  5 2015 May     47.7
##  6 2015 Jun     50.7
##  7 2015 Jul     54.1
##  8 2015 Aug     52.4
##  9 2015 Sep     57.9
## 10 2015 Oct     61.6
## # … with 66 more rows

The dates match up in type now, so they should join up nicely. Let’s try that.

Nike.Data <- Nike.Returns %>% left_join(., Nike.Last, by = c("date" = "date"))
Nike.Data

## # A tibble: 76 x 3
##        date monthly.returns adjusted
##       <mth>           <dbl>    <dbl>
##  1 2015 Jan         -0.0293     43.0
##  2 2015 Feb          0.0558     45.5
##  3 2015 Mar          0.0331     47.0
##  4 2015 Apr         -0.0149     46.3
##  5 2015 May          0.0314     47.7
##  6 2015 Jun          0.0625     50.7
##  7 2015 Jul          0.0667     54.1
##  8 2015 Aug         -0.0301     52.4
##  9 2015 Sep          0.103      57.9
## 10 2015 Oct          0.0655     61.6
## # … with 66 more rows
…
